…
## create a funciton that fill in the missing values 
fill_missing = function(x) {
  if (is.numeric(x)) {
     x = replace_na(x, round(mean(x, na.rm = TRUE),1))
  }
  else if (is.character(x)) {
     x = replace_na(x, "virginica")
  }
  x
}
map(iris_with_missing, fill_missing) %>% 
  bind_cols()
```

    ## # A tibble: 150 x 5
    ##    sepal_length sepal_width petal_length petal_width species
    ##           <dbl>       <dbl>        <dbl>       <dbl> <chr>  
    ##  1          5.1         3.5          1.4         0.2 setosa 
    ##  2          4.9         3            1.4         0.2 setosa 
    ##  3          4.7         3.2          1.3         0.2 setosa 
    ##  4          4.6         3.1          1.5         1.2 setosa 
    ##  5          5           3.6          1.4         0.2 setosa 
    ##  6          5.4         3.9          1.7         0.4 setosa 
    ##  7          5.8         3.4          1.4         0.3 setosa 
    ##  8          5           3.4          1.5         0.2 setosa 
    ##  9          4.4         2.9          1.4         0.2 setosa 
    ## 10          4.9         3.1          3.8         0.1 setosa 
    ## # … with 140 more rows
…
``` r
## generate 10000 datasets from the model created
set.seed(10)

generate_10000_list =
  rerun(10000, sim_line_regression(beta1 = 0)) %>%
  bind_rows()

generate_10000_list
```

    ## # A tibble: 10,000 x 2
    ##    beta1_hat p_value
    ##        <dbl>   <dbl>
    ##  1    -2.44   0.0895
    ##  2    -0.366  0.769 
    ##  3     2.10   0.0917
    ##  4    -0.963  0.431 
    ##  5     1.61   0.192 
    ##  6     0.213  0.880 
    ##  7    -1.99   0.219 
    ##  8     2.15   0.252 
    ##  9     0.421  0.773 
    ## 10     0.685  0.532 
    ## # … with 9,990 more rows
…
